{
    "basename": "asr-program1-15828e9",
    "cmd": "lfortran --show-asr {infile} -o {outfile}",
    "infile": "tests/program1.f90",
    "infile_hash": "ec4ccdfed01d45648718ca57a9ceb3e5aa82e55e57d8906636902e7b",
    "outfile": null,
    "outfile_hash": null,
    "stdout": "asr-program1-15828e9.stdout",
    "stdout_hash": "e09dbb875d18ec81284362f62acb57cd5688c4efd9a548471625bf3d",
    "stderr": null,
    "stderr_hash": null,
    "returncode": 0
}