{
    "basename": "asr-subroutine5-e718042",
    "cmd": "lfortran --show-asr {infile} -o {outfile}",
    "infile": "tests/errors/subroutine5.f90",
    "infile_hash": "fb11d5f686b160d1abe5da165bfaa8b25ab42a2b8ebcfc282cb853a7",
    "outfile": null,
    "outfile_hash": null,
    "stdout": null,
    "stdout_hash": null,
    "stderr": "asr-subroutine5-e718042.stderr",
    "stderr_hash": "5b97de8e6e941385cf56405dd8585d0c322c2a0f5a56ee95f834d995",
    "returncode": 2
}