{
    "basename": "ast-expr2-235be1c",
    "cmd": "lfortran --show-ast {infile} -o {outfile}",
    "infile": "tests/expr2.f90",
    "infile_hash": "d666975e3f2e2c0cc5c739b85bb21073accdf5692bcb64c9e0278d62",
    "outfile": null,
    "outfile_hash": null,
    "stdout": "ast-expr2-235be1c.stdout",
    "stdout_hash": "6e5f4556f960f7a1e97c6bb21594be32283d9132fcd13b6768bd3820",
    "stderr": null,
    "stderr_hash": null,
    "returncode": 0
}