{
    "basename": "ast-program_cmake_02-0a451f9",
    "cmd": "lfortran --show-ast {infile} -o {outfile}",
    "infile": "tests/../integration_tests/program_cmake_02.f90",
    "infile_hash": "c6368d319f7abf398750ad8860849dc5cb7712f0b79c55ee54604484",
    "outfile": null,
    "outfile_hash": null,
    "stdout": "ast-program_cmake_02-0a451f9.stdout",
    "stdout_hash": "b7f0081b68bca30de7e6ac861ca08bfc05a2b510b48be96c80d9179f",
    "stderr": null,
    "stderr_hash": null,
    "returncode": 0
}